test/simulation/qsim/add.msim.vcd
$comment
	File created using the following command:
		vcd file add.msim.vcd -direction
$end
$date
	Sun Sep 22 16:09:16 2024
$end
$version
	ModelSim Version 10.5
$end
$timescale
	1ps
$end

$scope module Block1_vlg_vec_tst $end
$var reg 1 ! a $end
$var reg 1 " b $end
$var reg 1 # clk $end
$var wire 1 $ c [1] $end
$var wire 1 % c [0] $end
$var wire 1 & sampler $end

$scope module i1 $end
$var wire 1 ' gnd $end
$var wire 1 ( vcc $end
$var wire 1 ) unknown $end
$var tri1 1 * devclrn $end
$var tri1 1 + devpor $end
$var tri1 1 , devoe $end
$var wire 1 - c[1]~output_o $end
$var wire 1 . c[0]~output_o $end
$var wire 1 / clk~input_o $end
$var wire 1 0 clk~inputclkctrl_outclk $end
$var wire 1 1 b~input_o $end
$var wire 1 2 a~input_o $end
$var wire 1 3 inst|Add0~0_combout $end
$var wire 1 4 inst|Add0~1_combout $end
$var wire 1 5 inst|temp [1] $end
$var wire 1 6 inst|temp [0] $end
$upscope $end
$upscope $end
$enddefinitions $end
#0
$dumpvars
0!
0"
1#
0%
0$
x&
0'
1(
x)
1*
1+
1,
0-
0.
1/
10
01
02
03
04
06
05
$end
#10000
0#
0&
0/
00
#20000
1#
1&
1/
10
#30000
1!
1"
0#
0&
12
11
0/
00
13
#40000
1#
1&
1/
10
15
1-
1$
#50000
0#
0&
0/
00
#60000
1#
1&
1/
10
#70000
0#
0&
0/
00
#80000
1#
1&
1/
10
#90000
0#
0&
0/
00
#100000
0!
0"
1#
1&
02
01
1/
10
03
#110000
0#
0&
0/
00
#120000
1#
1&
1/
10
05
0-
0$
#130000
0#
0&
0/
00
#140000
1#
1&
1/
10
#150000
0#
0&
0/
00
#160000
1#
1&
1/
10
#170000
0#
0&
0/
00
#180000
1#
1&
1/
10
#190000
0#
0&
0/
00
#200000
1#
1&
1/
10
#210000
0#
0&
0/
00
#220000
1#
1&
1/
10
#230000
0#
0&
0/
00
#240000
1!
1#
1&
12
1/
10
14
#250000
0#
0&
0/
00
#260000
1#
1&
1/
10
16
1.
1%
#270000
0#
0&
0/
00
#280000
1#
1&
1/
10
#290000
0!
0#
0&
02
0/
00
04
#300000
1#
1&
1/
10
06
0.
0%
#310000
0#
0&
0/
00
#320000
1#
1&
1/
10
#330000
0#
0&
0/
00
#340000
1#
1&
1/
10
#350000
0#
0&
0/
00
#360000
1#
1&
1/
10
#370000
0#
0&
0/
00
#380000
1#
1&
1/
10
#390000
0#
0&
0/
00
#400000
1"
1#
1&
11
1/
10
14
#410000
0#
0&
0/
00
#420000
1#
1&
1/
10
16
1.
1%
#430000
0"
0#
0&
01
0/
00
04
#440000
1#
1&
1/
10
06
0.
0%
#450000
0#
0&
0/
00
#460000
1#
1&
1/
10
#470000
0#
0&
0/
00
#480000
1!
1"
1#
1&
12
11
1/
10
13
#490000
0#
0&
0/
00
#500000
1#
1&
1/
10
15
1-
1$
#510000
0#
0&
0/
00
#520000
0!
1#
1&
02
1/
10
14
03
#530000
0"
0#
0&
01
0/
00
04
#540000
1#
1&
1/
10
05
0-
0$
#550000
0#
0&
0/
00
#560000
1#
1&
1/
10
#570000
0#
0&
0/
00
#580000
1#
1&
1/
10
#590000
0#
0&
0/
00
#600000
1#
1&
1/
10
#610000
0#
0&
0/
00
#620000
1#
1&
1/
10
#630000
0#
0&
0/
00
#640000
1#
1&
1/
10
#650000
0#
0&
0/
00
#660000
1#
1&
1/
10
#670000
0#
0&
0/
00
#680000
1#
1&
1/
10
#690000
0#
0&
0/
00
#700000
1#
1&
1/
10
#710000
0#
0&
0/
00
#720000
1#
1&
1/
10
#730000
0#
0&
0/
00
#740000
1#
1&
1/
10
#750000
0#
0&
0/
00
#760000
1#
1&
1/
10
#770000
0#
0&
0/
00
#780000
1#
1&
1/
10
#790000
0#
0&
0/
00
#800000
1#
1&
1/
10
#810000
0#
0&
0/
00
#820000
1#
1&
1/
10
#830000
0#
0&
0/
00
#840000
1#
1&
1/
10
#850000
0#
0&
0/
00
#860000
1#
1&
1/
10
#870000
0#
0&
0/
00
#880000
1#
1&
1/
10
#890000
0#
0&
0/
00
#900000
1#
1&
1/
10
#910000
0#
0&
0/
00
#920000
1#
1&
1/
10
#930000
0#
0&
0/
00
#940000
1#
1&
1/
10
#950000
0#
0&
0/
00
#960000
1#
1&
1/
10
#970000
0#
0&
0/
00
#980000
1#
1&
1/
10
#990000
0#
0&
0/
00
